delaligne1alaligne5,1,5
delaligne5alaligne10,5,10
delaligne10alaligne15,10,15
delaligne15alaligne20,15,20
delaligne20alaligne25,20,25
delaligne25alaligne30,25,30
delaligne30alaligne35,30,35
delaligne35alaligne40,35,40
delaligne40alaligne45,40,45
delaligne45alaligne50,45,50
delaligne50alaligne55,50,55
delaligne55alaligne60,55,60
delaligne60alaligne65,60,65
delaligne65alaligne70,65,70
delaligne70alaligne75,70,75
delaligne75alaligne80,75,80
delaligne80alaligne85,80,85
delaligne85alaligne90,85,90
delaligne90alaligne95,90,95
delaligne95alaligne100,95,100
delaligne100alaligne105,100,105
delaligne105alaligne110,105,110
delaligne110alaligne115,110,115
delaligne115alaligne120,115,120
delaligne120alaligne125,120,125
delaligne125alaligne130,125,130
delaligne130alaligne135,130,135
delaligne135alaligne140,135,140
delaligne140alaligne145,140,145
delaligne145alaligne150,145,150
delaligne150alaligne155,150,155
delaligne155alaligne160,155,160
delaligne160alaligne165,160,165
delaligne165alaligne170,165,170
delaligne170alaligne175,170,175
